<?xml version="1.0" encoding="UTF-8" standalone="no"?>
<svg
   xmlns:dc="http://purl.org/dc/elements/1.1/"
   xmlns:cc="http://creativecommons.org/ns#"
   xmlns:rdf="http://www.w3.org/1999/02/22-rdf-syntax-ns#"
   xmlns:svg="http://www.w3.org/2000/svg"
   xmlns="http://www.w3.org/2000/svg"
   xmlns:xlink="http://www.w3.org/1999/xlink"
   id="svg317"
   style="clip-rule:evenodd;fill-rule:evenodd;stroke-linecap:round;stroke-linejoin:round;stroke-miterlimit:1.5"
   xml:space="preserve"
   version="1.1"
   viewBox="0 0 776324.73 534616.74"
   height="509.15878"
   width="398.52396"><metadata
   id="metadata321"><rdf:RDF><cc:Work
       rdf:about=""><dc:format>image/svg+xml</dc:format><dc:type
         rdf:resource="http://purl.org/dc/dcmitype/StillImage" /><dc:title></dc:title></cc:Work></rdf:RDF></metadata><defs
   id="defs315"><marker
     style="overflow:visible"
     id="Arrow1Mend"
     refX="0"
     refY="0"
     orient="auto"><path
       transform="matrix(-0.4,0,0,-0.4,-4,0)"
       style="fill:#0000ff;fill-opacity:1;fill-rule:evenodd;stroke:#0000fd;stroke-width:1.00000003pt;stroke-opacity:1"
       d="M 0,0 5,-5 -12.5,0 5,5 Z"
       id="path1382" /></marker><marker
     style="overflow:visible"
     id="Arrow1Mstart"
     refX="0"
     refY="0"
     orient="auto"><path
       transform="matrix(0.4,0,0,0.4,4,0)"
       style="fill:#0000ff;fill-opacity:1;fill-rule:evenodd;stroke:#0000fd;stroke-width:1.00000003pt;stroke-opacity:1"
       d="M 0,0 5,-5 -12.5,0 5,5 Z"
       id="path1379" /></marker><linearGradient
     gradientTransform="matrix(162.379,0,0,162.379,491.916,425.728)"
     gradientUnits="userSpaceOnUse"
     y2="0"
     x2="1"
     y1="0"
     x1="0"
     id="_Linear1"><stop
       id="stop225"
       style="stop-color:#6f6f6f;stop-opacity:1"
       offset="0" /><stop
       id="stop227"
       style="stop-color:#d5d5d5;stop-opacity:1"
       offset="0.29" /><stop
       id="stop229"
       style="stop-color:#aaa;stop-opacity:1"
       offset="0.5" /><stop
       id="stop231"
       style="stop-color:#e0e0e0;stop-opacity:1"
       offset="1" /></linearGradient><linearGradient
     gradientTransform="matrix(162.379,0,0,62.688,491.916,578.247)"
     gradientUnits="userSpaceOnUse"
     y2="0"
     x2="1"
     y1="0"
     x1="0"
     id="_Linear2"><stop
       id="stop234"
       style="stop-color:#6f6f6f;stop-opacity:1"
       offset="0" /><stop
       id="stop236"
       style="stop-color:#d5d5d5;stop-opacity:1"
       offset="0.29" /><stop
       id="stop238"
       style="stop-color:#aaa;stop-opacity:1"
       offset="0.5" /><stop
       id="stop240"
       style="stop-color:#e0e0e0;stop-opacity:1"
       offset="1" /></linearGradient><linearGradient
     gradientTransform="matrix(154.98,0,0,102.235,495.403,430.955)"
     gradientUnits="userSpaceOnUse"
     y2="0"
     x2="1"
     y1="0"
     x1="0"
     id="_Linear3"><stop
       id="stop243"
       style="stop-color:#6f6f6f;stop-opacity:1"
       offset="0" /><stop
       id="stop245"
       style="stop-color:#d5d5d5;stop-opacity:1"
       offset="0.29" /><stop
       id="stop247"
       style="stop-color:#aaa;stop-opacity:1"
       offset="0.5" /><stop
       id="stop249"
       style="stop-color:#e0e0e0;stop-opacity:1"
       offset="1" /></linearGradient><linearGradient
     gradientTransform="matrix(154.98,0,0,162.379,495.403,425.728)"
     gradientUnits="userSpaceOnUse"
     y2="0"
     x2="1"
     y1="0"
     x1="0"
     id="_Linear4"><stop
       id="stop252"
       style="stop-color:#6f6f6f;stop-opacity:1"
       offset="0" /><stop
       id="stop254"
       style="stop-color:#d5d5d5;stop-opacity:1"
       offset="0.29" /><stop
       id="stop256"
       style="stop-color:#aaa;stop-opacity:1"
       offset="0.5" /><stop
       id="stop258"
       style="stop-color:#e0e0e0;stop-opacity:1"
       offset="1" /></linearGradient><linearGradient
     gradientTransform="matrix(162.379,0,0,162.379,491.916,425.728)"
     gradientUnits="userSpaceOnUse"
     y2="0"
     x2="1"
     y1="0"
     x1="0"
     id="_Linear5"><stop
       id="stop261"
       style="stop-color:#6f6f6f;stop-opacity:1"
       offset="0" /><stop
       id="stop263"
       style="stop-color:#d5d5d5;stop-opacity:1"
       offset="0.29" /><stop
       id="stop265"
       style="stop-color:#aaa;stop-opacity:1"
       offset="0.5" /><stop
       id="stop267"
       style="stop-color:#e0e0e0;stop-opacity:1"
       offset="1" /></linearGradient><linearGradient
     gradientTransform="matrix(162.379,0,0,162.379,1469.66,425.728)"
     gradientUnits="userSpaceOnUse"
     y2="0"
     x2="1"
     y1="0"
     x1="0"
     id="_Linear7"><stop
       id="stop270"
       style="stop-color:#6f6f6f;stop-opacity:1"
       offset="0" /><stop
       id="stop272"
       style="stop-color:#d5d5d5;stop-opacity:1"
       offset="0.29" /><stop
       id="stop274"
       style="stop-color:#aaa;stop-opacity:1"
       offset="0.5" /><stop
       id="stop276"
       style="stop-color:#e0e0e0;stop-opacity:1"
       offset="1" /></linearGradient><linearGradient
     gradientTransform="matrix(162.379,0,0,62.688,1469.66,578.247)"
     gradientUnits="userSpaceOnUse"
     y2="0"
     x2="1"
     y1="0"
     x1="0"
     id="_Linear8"><stop
       id="stop279"
       style="stop-color:#6f6f6f;stop-opacity:1"
       offset="0" /><stop
       id="stop281"
       style="stop-color:#d5d5d5;stop-opacity:1"
       offset="0.29" /><stop
       id="stop283"
       style="stop-color:#aaa;stop-opacity:1"
       offset="0.5" /><stop
       id="stop285"
       style="stop-color:#e0e0e0;stop-opacity:1"
       offset="1" /></linearGradient><linearGradient
     gradientTransform="matrix(154.98,0,0,102.235,1473.15,430.955)"
     gradientUnits="userSpaceOnUse"
     y2="0"
     x2="1"
     y1="0"
     x1="0"
     id="_Linear9"><stop
       id="stop288"
       style="stop-color:#6f6f6f;stop-opacity:1"
       offset="0" /><stop
       id="stop290"
       style="stop-color:#d5d5d5;stop-opacity:1"
       offset="0.29" /><stop
       id="stop292"
       style="stop-color:#aaa;stop-opacity:1"
       offset="0.5" /><stop
       id="stop294"
       style="stop-color:#e0e0e0;stop-opacity:1"
       offset="1" /></linearGradient><linearGradient
     gradientTransform="matrix(154.98,0,0,162.379,1473.15,425.728)"
     gradientUnits="userSpaceOnUse"
     y2="0"
     x2="1"
     y1="0"
     x1="0"
     id="_Linear10"><stop
       id="stop297"
       style="stop-color:#6f6f6f;stop-opacity:1"
       offset="0" /><stop
       id="stop299"
       style="stop-color:#d5d5d5;stop-opacity:1"
       offset="0.29" /><stop
       id="stop301"
       style="stop-color:#aaa;stop-opacity:1"
       offset="0.5" /><stop
       id="stop303"
       style="stop-color:#e0e0e0;stop-opacity:1"
       offset="1" /></linearGradient><linearGradient
     gradientTransform="matrix(162.379,0,0,162.379,1469.66,425.728)"
     gradientUnits="userSpaceOnUse"
     y2="0"
     x2="1"
     y1="0"
     x1="0"
     id="_Linear11"><stop
       id="stop306"
       style="stop-color:#6f6f6f;stop-opacity:1"
       offset="0" /><stop
       id="stop308"
       style="stop-color:#d5d5d5;stop-opacity:1"
       offset="0.29" /><stop
       id="stop310"
       style="stop-color:#aaa;stop-opacity:1"
       offset="0.5" /><stop
       id="stop312"
       style="stop-color:#e0e0e0;stop-opacity:1"
       offset="1" /></linearGradient><clipPath
     id="_clip12"><path
       d="m 1432.26,1011.4 h 209.469 v -19.624 h -58.409 v -24.554 h -64.662 v 24.554 h -86.398 z"
       id="path157" /></clipPath><clipPath
     id="_clip6"><path
       d="M 454.512,1011.4 H 663.98 v -19.624 h -58.409 v -24.554 h -64.662 v 24.554 h -86.397 z"
       id="path74" /></clipPath><marker
     style="overflow:visible"
     id="Arrow1Mstart-3"
     refX="0"
     refY="0"
     orient="auto"><path
       transform="matrix(0.4,0,0,0.4,4,0)"
       style="fill:#0000ff;fill-opacity:1;fill-rule:evenodd;stroke:#0000fd;stroke-width:1.00000003pt;stroke-opacity:1"
       d="M 0,0 5,-5 -12.5,0 5,5 Z"
       id="path1379-6" /></marker><marker
     style="overflow:visible"
     id="Arrow1Mend-7"
     refX="0"
     refY="0"
     orient="auto"><path
       transform="matrix(-0.4,0,0,-0.4,-4,0)"
       style="fill:#0000ff;fill-opacity:1;fill-rule:evenodd;stroke:#0000fd;stroke-width:1.00000003pt;stroke-opacity:1"
       d="M 0,0 5,-5 -12.5,0 5,5 Z"
       id="path1382-5" /></marker><marker
     style="overflow:visible"
     id="Arrow1Mstart-3-5"
     refX="0"
     refY="0"
     orient="auto"><path
       transform="matrix(0.4,0,0,0.4,4,0)"
       style="fill:#0000ff;fill-opacity:1;fill-rule:evenodd;stroke:#0000fd;stroke-width:1.00000003pt;stroke-opacity:1"
       d="M 0,0 5,-5 -12.5,0 5,5 Z"
       id="path1379-6-6" /></marker><marker
     style="overflow:visible"
     id="Arrow1Mend-7-2"
     refX="0"
     refY="0"
     orient="auto"><path
       transform="matrix(-0.4,0,0,-0.4,-4,0)"
       style="fill:#0000ff;fill-opacity:1;fill-rule:evenodd;stroke:#0000fd;stroke-width:1.00000003pt;stroke-opacity:1"
       d="M 0,0 5,-5 -12.5,0 5,5 Z"
       id="path1382-5-9" /></marker><marker
     style="overflow:visible"
     id="Arrow1Mstart-3-5-2"
     refX="0"
     refY="0"
     orient="auto"><path
       transform="matrix(0.4,0,0,0.4,4,0)"
       style="fill:#0000ff;fill-opacity:1;fill-rule:evenodd;stroke:#0000fd;stroke-width:1.00000003pt;stroke-opacity:1"
       d="M 0,0 5,-5 -12.5,0 5,5 Z"
       id="path1379-6-6-7" /></marker><marker
     style="overflow:visible"
     id="Arrow1Mend-7-2-0"
     refX="0"
     refY="0"
     orient="auto"><path
       transform="matrix(-0.4,0,0,-0.4,-4,0)"
       style="fill:#0000ff;fill-opacity:1;fill-rule:evenodd;stroke:#0000fd;stroke-width:1.00000003pt;stroke-opacity:1"
       d="M 0,0 5,-5 -12.5,0 5,5 Z"
       id="path1382-5-9-9" /></marker><marker
     style="overflow:visible"
     id="Arrow1Mstart-3-5-6"
     refX="0"
     refY="0"
     orient="auto"><path
       transform="matrix(0.4,0,0,0.4,4,0)"
       style="fill:#0000ff;fill-opacity:1;fill-rule:evenodd;stroke:#0000fd;stroke-width:1.00000003pt;stroke-opacity:1"
       d="M 0,0 5,-5 -12.5,0 5,5 Z"
       id="path1379-6-6-2" /></marker><marker
     style="overflow:visible"
     id="Arrow1Mend-7-2-6"
     refX="0"
     refY="0"
     orient="auto"><path
       transform="matrix(-0.4,0,0,-0.4,-4,0)"
       style="fill:#0000ff;fill-opacity:1;fill-rule:evenodd;stroke:#0000fd;stroke-width:1.00000003pt;stroke-opacity:1"
       d="M 0,0 5,-5 -12.5,0 5,5 Z"
       id="path1382-5-9-1" /></marker><marker
     style="overflow:visible"
     id="Arrow1Mstart-3-5-7"
     refX="0"
     refY="0"
     orient="auto"><path
       transform="matrix(0.4,0,0,0.4,4,0)"
       style="fill:#0000ff;fill-opacity:1;fill-rule:evenodd;stroke:#0000fd;stroke-width:1.00000003pt;stroke-opacity:1"
       d="M 0,0 5,-5 -12.5,0 5,5 Z"
       id="path1379-6-6-9" /></marker><marker
     style="overflow:visible"
     id="Arrow1Mend-7-2-2"
     refX="0"
     refY="0"
     orient="auto"><path
       transform="matrix(-0.4,0,0,-0.4,-4,0)"
       style="fill:#0000ff;fill-opacity:1;fill-rule:evenodd;stroke:#0000fd;stroke-width:1.00000003pt;stroke-opacity:1"
       d="M 0,0 5,-5 -12.5,0 5,5 Z"
       id="path1382-5-9-0" /></marker><marker
     style="overflow:visible"
     id="Arrow1Mstart-3-2"
     refX="0"
     refY="0"
     orient="auto"><path
       transform="matrix(0.4,0,0,0.4,4,0)"
       style="fill:#0000ff;fill-opacity:1;fill-rule:evenodd;stroke:#0000fd;stroke-width:1.00000003pt;stroke-opacity:1"
       d="M 0,0 5,-5 -12.5,0 5,5 Z"
       id="path1379-6-5" /></marker><marker
     style="overflow:visible"
     id="Arrow1Mend-7-3"
     refX="0"
     refY="0"
     orient="auto"><path
       transform="matrix(-0.4,0,0,-0.4,-4,0)"
       style="fill:#0000ff;fill-opacity:1;fill-rule:evenodd;stroke:#0000fd;stroke-width:1.00000003pt;stroke-opacity:1"
       d="M 0,0 5,-5 -12.5,0 5,5 Z"
       id="path1382-5-4" /></marker><clipPath
     id="_clip6-3"><path
       d="M 454.512,1011.4 H 663.98 v -19.624 h -58.409 v -24.554 h -64.662 v 24.554 h -86.397 z"
       id="path74-6" /></clipPath><clipPath
     id="_clip6-7"><path
       d="M 454.512,1011.4 H 663.98 v -19.624 h -58.409 v -24.554 h -64.662 v 24.554 h -86.397 z"
       id="path74-65" /></clipPath><linearGradient
     y2="0"
     x2="1"
     y1="0"
     x1="0"
     gradientTransform="matrix(162.379,0,0,162.379,491.916,425.728)"
     gradientUnits="userSpaceOnUse"
     id="linearGradient1445"
     xlink:href="#_Linear1" /><linearGradient
     y2="0"
     x2="1"
     y1="0"
     x1="0"
     gradientTransform="matrix(162.379,0,0,62.688,491.916,578.247)"
     gradientUnits="userSpaceOnUse"
     id="linearGradient1447"
     xlink:href="#_Linear2" /><linearGradient
     y2="0"
     x2="1"
     y1="0"
     x1="0"
     gradientTransform="matrix(154.98,0,0,102.235,495.403,430.955)"
     gradientUnits="userSpaceOnUse"
     id="linearGradient1449"
     xlink:href="#_Linear3" /><linearGradient
     y2="0"
     x2="1"
     y1="0"
     x1="0"
     gradientTransform="matrix(154.98,0,0,162.379,495.403,425.728)"
     gradientUnits="userSpaceOnUse"
     id="linearGradient1451"
     xlink:href="#_Linear4" /><linearGradient
     y2="0"
     x2="1"
     y1="0"
     x1="0"
     gradientTransform="matrix(162.379,0,0,162.379,491.916,425.728)"
     gradientUnits="userSpaceOnUse"
     id="linearGradient1453"
     xlink:href="#_Linear1" /><linearGradient
     y2="0"
     x2="1"
     y1="0"
     x1="0"
     gradientTransform="matrix(162.379,0,0,162.379,491.916,425.728)"
     gradientUnits="userSpaceOnUse"
     id="linearGradient1455"
     xlink:href="#_Linear1" /><linearGradient
     y2="0"
     x2="1"
     y1="0"
     x1="0"
     gradientTransform="matrix(162.379,0,0,62.688,491.916,578.247)"
     gradientUnits="userSpaceOnUse"
     id="linearGradient1457"
     xlink:href="#_Linear2" /><linearGradient
     y2="0"
     x2="1"
     y1="0"
     x1="0"
     gradientTransform="matrix(154.98,0,0,102.235,495.403,430.955)"
     gradientUnits="userSpaceOnUse"
     id="linearGradient1459"
     xlink:href="#_Linear3" /><linearGradient
     y2="0"
     x2="1"
     y1="0"
     x1="0"
     gradientTransform="matrix(154.98,0,0,162.379,495.403,425.728)"
     gradientUnits="userSpaceOnUse"
     id="linearGradient1461"
     xlink:href="#_Linear4" /></defs>












<g
   transform="translate(-697610.26,-512793.36)"
   id="g1303"><g
     id="g303"><g
       transform="matrix(1570.5458,0,0,1570.5458,4777.0663,-331907.43)"
       id="g70"><rect
         x="495.40302"
         y="669.76703"
         width="154.98"
         height="38.002998"
         style="fill:url(#linearGradient1455)"
         id="rect48" /><path
         d="m 650.383,707.769 h -154.98 v -38.002 h 154.98 z M 499.57,673.933 v 29.67 h 146.646 v -29.67 z"
         id="path50" /><rect
         x="491.91599"
         y="583.67798"
         width="162.379"
         height="90.474998"
         style="fill:url(#linearGradient1457)"
         id="rect52" /><path
         d="m 654.296,674.153 h -162.38 v -90.475 h 162.38 z M 496.083,587.845 v 82.141 h 154.046 v -82.141 z"
         id="path54" /><rect
         x="495.40302"
         y="439.81299"
         width="154.98"
         height="147.552"
         style="fill:url(#linearGradient1459)"
         id="rect56" /><path
         d="M 650.383,587.365 H 495.403 V 439.813 h 154.98 z M 499.57,443.98 V 583.198 H 646.216 V 443.98 Z"
         id="path58" /><path
         d="m 650.383,439.797 -27.886,-28.138 h -96.788 l -30.306,28.138 z"
         style="fill:url(#linearGradient1461)"
         id="path60" /><path
         d="m 650.383,439.797 h -154.98 l 30.306,-28.138 h 96.788 z m -123.038,-23.971 -21.33,19.805 H 640.387 L 620.76,415.826 Z"
         id="path62" /><rect
         x="494.116"
         y="611.84802"
         width="157.812"
         height="9.0609999"
         style="fill:#007cdf;stroke:#000000;stroke-width:4.17000008px"
         id="rect64" /><rect
         x="533.70502"
         y="404.67999"
         width="78.375999"
         height="11.723"
         style="fill:url(#_Linear5)"
         id="rect66" /><path
         d="M 612.081,416.403 H 533.705 V 404.68 h 78.376 z m -74.209,-7.556 v 3.389 h 70.043 v -3.389 z"
         id="path68" /></g><path
       d="M 718608.95,1256542.4 H 1047588 v -30820.3 h -91733.95 v -38563.4 H 854299.39 v 38563.4 H 718608.95 Z"
       style="fill:#30b53e;stroke-width:1570.5456543"
       id="path72" /><g
       transform="matrix(1570.5458,0,0,1570.5458,4777.0663,-331907.43)"
       clip-path="url(#_clip6)"
       id="g81"><rect
         x="540.909"
         y="967.22101"
         width="64.662003"
         height="17.264"
         id="rect77" /><path
         d="m 605.571,984.485 h -64.662 v -17.264 h 64.662 z m -60.495,-13.098 v 8.931 h 56.329 v -8.931 z"
         id="path79" /></g><path
       style="stroke-width:1570.5456543"
       d="M 955854.05,1225720.5 H 1047588 v 30820.3 H 718608.95 v -30820.3 h 135690.44 v -38563.2 h 101554.66 z m -95010.2,-32020.1 v 32020.1 l -56.53,854.5 -166.45,838.7 -274.87,811.7 -378.52,766.6 -475.86,713 -565.42,642.3 -642.31,565.4 -713.05,474.3 -766.42,380.2 -812.01,274.7 -838.65,166.6 -854.37,56.6 H 725153.43 v 17731.6 h 315891.67 v -17731.6 h -85191.05 l -854.38,-56.6 -838.68,-166.6 -810.44,-274.7 -767.97,-380.2 -711.45,-474.3 -643.93,-565.4 -563.84,-642.3 -475.86,-713 -378.49,-766.6 -274.84,-811.7 -168.05,-838.7 -54.98,-854.5 v -32020.1 z"
       id="path83" /><path
       d="m 830794.59,813931.31 c 11215.3,-14433.4 38187.81,-24615.12 69645.89,-24615.12 31456.42,0 58428.98,10181.72 69644.26,24615.12 v 33058.26 H 830794.59 Z"
       style="fill:#53b3ff;stroke-width:1570.5456543"
       id="path85" /><path
       style="stroke-width:1570.5456543"
       d="m 901177.06,789317.63 733.42,6.31 733.46,7.75 731.84,14.06 728.77,15.87 728.72,20.37 725.58,23.79 724.02,28.13 722.46,31.37 719.31,34.43 719.31,37.86 716.15,42.18 714.62,43.99 711.49,50.48 709.86,51.74 708.29,54.8 705.23,60.03 703.59,62.56 702.03,65.8 698.89,69.23 697.31,73.73 694.18,75.54 692.63,80.04 689.45,83.29 687.89,86.53 684.78,89.24 681.63,93.02 680.01,95.37 676.93,99.33 675.33,103.66 672.17,105.11 669.03,108.52 667.53,112.86 664.31,114.83 661.24,119.17 658.05,121.14 656.46,125.48 653.33,127.27 650.24,131.79 647.06,133.76 643.95,136.65 640.79,139.54 639.2,144.4 634.5,146.21 632.92,149.27 629.8,150.71 625.06,155.4 623.51,158.82 618.8,159.91 617.22,163.33 612.5,168.02 610.96,168.2 606.22,172.89 603.12,175.77 599.91,177.39 596.81,180.64 592.1,184.06 590.52,186.59 585.81,188.39 582.69,191.81 577.96,194.7 576.38,197.77 571.72,199.57 566.93,202.45 563.82,205.88 560.68,207.32 557.57,210.2 552.84,213.63 549.66,215.61 544.98,217.96 540.24,219.94 538.75,224.8 532.41,224.27 529.3,229.67 526.08,230.58 521.46,232.56 516.69,235.44 513.54,238.87 508.89,240.13 504.18,241.75 500.94,245.18 496.3,248.06 491.6,249.86 488.46,252.93 483.73,254.38 479.01,256.17 474.26,259.06 469.64,262.12 466.43,262.13 460.18,267.35 457,266.99 452.36,269.88 447.57,273.3 442.93,273.48 436.59,277.63 433.43,278.17 428.77,281.41 424.11,282.31 419.3,284.48 414.7,287.18 408.3,289.17 405.2,292.23 398.9,292.05 394.2,295.12 391.1,296.91 383.2,299.8 380,300.35 373.8,302.86 185.4,152.52 183.7,152.15 183.8,152.52 180.6,153.6 180.6,154.13 179.1,155.4 177.4,154.14 175.9,155.4 174.3,155.58 174.4,156.84 171.2,157.02 171.1,157.02 169.7,157.39 168,158.46 168.1,158.83 164.9,158.46 164.9,160.27 161.8,158.46 161.7,160.27 160.2,161.71 158.6,160.08 157.1,161.71 157.1,161.89 153.9,163.15 153.9,161.89 152.3,163.52 150.8,164.77 149.2,163.33 147.6,165.14 146.1,164.77 144.4,164.77 143,166.58 142.9,166.58 141.4,166.21 138.2,166.58 138.2,168.2 136.6,166.58 135.1,168.01 133.5,169.65 131.9,168.01 v 33058.26 H 830794.59 v -33058.26 l 131.95,-168.01 135.06,-169.65 135.06,-168.01 135.07,-166.58 138.2,-168.2 139.79,-166.58 139.8,-166.21 142.87,-166.58 142.94,-166.58 146.07,-164.77 146.09,-164.77 147.61,-165.14 149.17,-163.33 150.8,-164.77 150.78,-163.52 153.92,-161.89 155.49,-163.15 155.42,-161.89 157.1,-161.71 158.62,-160.08 160.21,-161.71 161.75,-160.27 163.35,-158.46 163.31,-160.27 166.49,-158.46 166.47,-158.83 168.05,-158.46 169.63,-157.39 171.19,-157.02 172.76,-157.02 172.78,-156.84 174.31,-155.58 177.48,-155.4 177.47,-154.14 177.44,-155.4 180.62,-154.13 182.21,-153.6 182.19,-152.52 183.74,-152.15 185.31,-152.52 373.78,-302.86 380.08,-300.35 384.82,-299.8 389.46,-296.91 394.21,-295.12 400.47,-292.05 403.68,-292.23 409.91,-289.17 413.02,-287.18 419.35,-284.48 424.04,-282.31 428.78,-281.41 433.46,-278.17 438.18,-277.63 442.89,-273.48 447.63,-273.3 450.75,-269.88 457,-266.99 461.73,-267.35 464.9,-262.13 471.16,-262.12 474.32,-259.06 479.02,-256.17 482.15,-254.38 488.45,-252.93 491.56,-249.86 496.29,-248.06 501.01,-245.18 504.13,-241.75 508.88,-240.13 513.54,-238.87 518.3,-235.44 519.87,-232.56 526.1,-230.58 529.28,-229.67 533.98,-224.27 537.09,-224.8 541.88,-219.94 545,-217.96 548.13,-215.61 554.37,-213.63 555.96,-210.2 560.7,-207.32 563.82,-205.88 568.56,-202.45 571.62,-199.57 574.87,-197.77 579.52,-194.7 582.64,-191.81 585.85,-188.39 588.97,-186.59 593.62,-184.06 595.28,-180.64 599.91,-177.39 603.13,-175.77 607.79,-172.89 609.4,-168.2 612.51,-168.02 617.21,-163.33 620.38,-159.91 621.9,-158.82 626.65,-155.4 628.21,-150.71 632.94,-149.27 636.11,-146.21 637.6,-144.4 640.8,-139.54 645.47,-136.65 647.07,-133.76 650.21,-131.79 651.76,-127.27 656.53,-125.48 658,-121.14 662.81,-119.17 662.79,-114.83 667.44,-112.86 669.08,-108.52 672.19,-105.11 675.34,-103.66 676.9,-99.33 680.05,-95.37 683.18,-93.02 684.73,-89.24 687.94,-86.53 689.49,-83.29 691,-80.04 695.73,-75.54 695.82,-73.73 698.85,-69.23 702.07,-65.8 703.59,-62.56 705.14,-60.03 708.34,-54.8 709.9,-51.74 712.98,-50.48 714.62,-43.99 716.18,-42.18 717.74,-37.86 720.87,-34.43 720.88,-31.37 724.01,-28.13 727.19,-23.79 727.17,-20.37 730.27,-15.87 730.32,-14.06 733.44,-7.75 735.03,-6.31 h 736.6 z m -1440.21,6544.62 -702.03,4.33 -700.49,9.73 -697.32,10.64 -697.29,17.49 -694.18,18.75 -692.63,21.99 -691.06,27.04 -689.47,29.57 -686.3,32.99 -684.77,36.23 -683.19,40.75 -681.6,42.54 -678.47,47.05 -676.89,48.5 -675.34,53.72 -672.2,56.25 -670.6,59.85 -667.5,62.74 -665.94,65.8 -662.78,70.67 -661.2,72.29 -658.03,75.54 -656.52,78.42 -653.35,83.29 -651.74,84.91 -648.63,87.97 -647.06,91.22 -642.36,93.93 -640.8,97.35 -639.21,100.77 -634.49,103.66 -632.95,106.55 -629.77,109.97 -626.64,111.41 -625.12,116.28 -621.9,117.72 -618.81,121.14 -615.66,124.04 -610.93,127.27 -609.35,128.9 -606.24,133.23 -603.09,135.2 -601.55,138.1 -596.79,139.89 -593.67,144.4 -590.52,146.21 -587.4,149.27 -582.66,150.71 -581.1,153.96 -577.97,157.02 -573.25,159.91 -570.08,161.89 -567.01,165.13 -562.23,166.22 -560.68,169.82 -555.96,172.53 -552.87,174.5 -548.09,177.22 -544.97,179.19 -541.85,182.26 -537.14,183.53 -533.98,186.95 -529.29,188.57 -526.13,191.63 -521.4,193.26 -518.29,196.32 -513.54,197.77 -510.46,201.01 -505.72,201.01 -500.99,205.87 -497.85,205.7 -493.17,208.94 -488.41,210.21 -486.86,213.62 -480.64,215.08 -474.31,217.05 -472.7,218.14 -468.06,221.74 -461.71,222.82 -458.61,224.81 -455.45,225.71 -449.16,228.05 -444.48,230.75 -441.34,230.94 -435.02,234 -430.36,235.44 -425.58,237.43 -420.94,236.88 -417.75,240.31 -411.47,242.12 -406.78,243.19 -402.07,245.18 -397.33,246.62 -392.65,246.44 -386.32,249.5 -381.66,250.05 -378.49,252.75 -372.24,252.93 -365.95,252.93 -361.22,255.81 -356.5,256.18 -351.79,257.25 -347.09,260.68 -339.27,259.24 -334.52,260.87 -331.39,262.12 -329.8,266.99 -155.47,127.46 -160.19,131.78 -157.1,131.78 -155.45,132.15 -153.89,131.78 -153.92,133.59 -153.94,131.96 -149.2,133.58 -149.21,133.23 -149.2,132.14 -146.06,134.85 -146.04,133.59 -144.51,133.4 -141.36,135.03 -141.36,133.77 -139.75,133.22 -139.8,135.21 -136.62,135.03 -135.06,135.21 -135.07,133.22 -133.49,135.21 -131.91,136.47 -128.81,133.77 -128.81,135.03 -127.22,136.65 -125.6,133.22 -125.67,136.65 -114.66,127.46 v 24137.57 H 963540.24 V 816309 l -114.6,-127.46 -124.1,-136.65 -125.7,-133.22 -128.7,-136.65 -127.3,-133.59 -130.3,-135.21 -131.9,-136.47 -133.5,-135.21 -133.5,-133.22 -135.1,-135.21 -138.2,-135.03 -138.2,-135.21 -139.7,-133.22 -141.4,-133.77 -142.9,-135.03 -142.9,-133.4 -146.1,-133.59 -147.7,-133.22 -147.6,-133.77 -149.2,-133.23 -150.8,-133.58 -152.3,-131.96 -153.9,-133.59 -155.5,-131.78 -155.5,-133.59 -157,-130.34 -158.6,-131.78 -155.5,-127.46 -331.43,-268.43 -329.82,-260.68 -336.12,-260.87 -339.22,-259.24 -347.08,-260.68 -351.8,-257.25 -354.97,-256.18 -362.75,-255.81 -365.95,-252.93 -372.23,-252.93 -376.96,-252.75 -381.6,-250.05 -387.92,-249.5 -392.65,-246.44 -395.76,-246.62 -402.07,-245.18 -406.78,-243.19 -413.05,-242.12 -416.19,-240.31 -420.92,-236.88 -427.18,-237.43 -430.34,-235.44 -435.01,-234 -439.74,-230.94 -446.06,-230.75 -449.16,-228.05 -453.94,-225.71 -458.57,-224.81 -463.32,-222.82 -468,-221.74 -471.19,-218.14 -475.9,-217.05 -480.55,-215.08 -485.3,-213.62 -488.45,-210.21 -493.15,-208.94 -497.87,-205.7 -502.58,-205.87 -505.7,-202.46 -510.43,-199.56 -513.54,-197.77 -518.34,-196.32 -521.36,-193.26 -526.16,-191.63 -529.24,-188.57 -534.02,-186.95 -537.12,-183.53 -540.26,-182.26 -546.58,-179.19 -548.08,-177.22 -551.27,-174.5 -557.55,-172.53 -559.11,-169.82 -563.84,-166.22 -566.97,-165.13 -570.11,-161.89 -573.27,-159.91 -577.93,-157.02 -579.54,-153.96 -584.25,-150.71 -587.36,-149.27 -590.52,-146.21 -593.67,-144.4 -596.81,-139.89 -599.93,-138.1 -603.14,-135.2 -606.18,-133.23 -609.41,-128.9 -612.49,-127.27 -615.67,-124.04 -618.79,-121.14 -620.37,-117.72 -625.06,-116.28 -626.66,-111.41 -629.82,-109.97 -632.88,-106.55 -636.08,-103.66 -637.64,-100.77 -640.8,-97.35 -643.89,-93.93 -645.51,-91.22 -648.64,-87.97 -651.81,-84.91 -653.34,-83.29 -656.49,-78.42 -658.05,-75.54 -661.18,-72.29 -664.36,-70.67 -665.89,-65.8 -667.5,-62.74 -670.63,-59.85 -672.15,-56.25 -673.79,-53.72 -676.89,-48.5 -680.1,-47.05 -679.99,-42.54 -683.21,-40.75 -684.75,-36.23 -687.89,-32.99 -689.49,-29.57 -689.47,-27.04 -692.61,-21.99 -695.78,-18.75 -695.73,-17.49 -698.85,-10.64 -700.52,-9.73 -700.43,-4.33 h -703.59 z"
       id="path87" /><path
       id="optics"
       d="m 1045673.5,1225506.9 v -46367.3 l -175.9,-569.9 -221.4,-177.7 -33.1,-10.7 v -524.6 l -9.6,-65.9 -13.9,-63 -31753.3,-115019 5223.7,-192644.93 v -522.63 l -186.9,-95.91 5946,-89010.71 V 728072.4 h -12565.9 v 52362.22 l -3849.4,89629.25 h -16047.76 v -522.63 l -13387.4,-26181.38 v -9947.73 l 4188.7,-20421.51 v -523.16 h -10472.4 l -4188.7,20944.67 v 9947.73 l 13387.4,26704.01 h -15708.7 v -20944.68 h -10472.33 v 20944.68 h 948.61 l 14759.92,16283.68 h -15603.3 l 14760,16281.97 h -15603.39 l 14758.39,16281.78 h -15601.79 l 14758.39,16281.97 h -15601.76 l 14758.46,16283.23 h -15601.86 l 14758.46,16281.97 h -15603.4 l 14760,16281.61 h -15603.38 l 14759.98,16283.62 h -15603.37 l 14759.97,16281.6 h -15603.33 l 14759.93,16282.1 h -15603.32 l 14758.42,16281.6 h -15601.83 l 14758.43,16283.6 h -15601.83 l 14758.43,16282 h -15601.78 l 14758.38,16281.6 h -15603.35 l 14760.01,16282.2 h -15603.4 l 14760.01,16283 h -15603.37 l 14759.98,16282.2 h -15603.35 l 14758.38,16281.6 h -15601.78 l 14758.39,16281.9 h -5748.17 l 23734.05,15708.7 v 24872.8 l 3535.3,5496.8 z m -216058.36,0 3533.7,-5498.3 v -24871.3 l 23734.09,-15708.5 h -5748.17 l 14759.99,-16283.6 h -15603.37 l 14759.97,-16281.6 h -15603.4 l 14758.42,-16282.2 h -15601.79 l 14758.45,-16281.6 h -15601.81 l 14758.42,-16283.6 h -15601.82 l 14758.43,-16281.6 h -15603.37 l 14759.97,-16282 h -15603.34 l 14759.97,-16281.8 h -15603.37 l 14759.97,-16283.4 h -15603.36 l 14758.42,-16282.1 h -15601.78 l 14758.41,-16281.6 h -15601.82 l 14758.42,-16282 h -15601.81 l 14758.42,-16283.23 h -15603.35 l 14760.01,-16281.97 h -15603.4 l 14760.01,-16281.78 h -15603.41 l 14759.98,-16283.42 h -15603.35 l 14759.97,-16282.14 h -15603.33 l 14758.39,-16281.61 h -15601.78 l 14758.38,-16282.06 h 950.21 V 849120.64 H 841186.9 v 20944.85 h -15708.57 l 5828.3,-26705.63 v -9947.73 l -4188.66,-20944.67 h -10472.41 v 523.16 l 4188.65,20421.51 v 9947.73 l -5828.28,26181.38 v 524.25 h -16047.84 l -3849.41,-89630.87 v -52360.24 h -12567.53 v 30892.4 h -28797.48 v 49626.15 h 30679.02 l 2534.83,37935.13 h -33213.85 v 9192.01 h -26181.02 v -9192.01 h -10472.39 v 216658.34 l 4413.21,55875.3 83.26,196.3 16911.62,24949.5 23163.97,34173.8 -42401.61,9743.3 -576.38,204.5 v 37176.3 h 44116.64 v -25656.6 l 13654.35,-6053 8561.01,6053 v 25656.6 z M 727562.65,808592.93 v -26177.96 h -10472.39 v 26177.96 z m 284275.05,-30619.28 v -6283.94 l -2406.1,1470.34 -2300.9,1410.13 v 523.17 l 2300.9,1408.69 z m -216681.92,-3695.52 2406.04,-1470.16 2299.34,-1408.87 v -524.61 l -2299.34,-1408.69 -2406.04,-1471.61 z m 216681.92,-3693.89 v -6283.94 l -2406.1,1470.16 -2300.9,1410.32 v 523.16 l 2300.9,1410.14 z m -216681.92,-3695.69 2406.04,-1470.17 2299.34,-1408.69 v -524.61 l -2299.34,-1408.69 -2406.04,-1469.8 z m 216681.92,-3693.71 v -6283.95 l -2406.1,1470.17 -2300.9,1410.31 v 522.99 l 2300.9,1410.31 z m -216681.92,-3695.7 2406.04,-1469.8 2299.34,-1409.05 v -524.25 l -2299.34,-1409.05 -2406.04,-1469.99 z m 216681.92,-3693.71 v -6283.94 l -2406.1,1470.16 -2300.9,1410.14 v 523.16 l 2300.9,1410.31 z m -216681.92,-3695.69 2406.04,-1469.81 2299.34,-1409.05 v -522.81 l -2299.34,-1410.31 -2406.04,-1470.16 z m 216681.92,-3693.9 v -6283.76 l -2406.1,1471.61 -2300.9,1408.69 v 524.61 l 2300.9,1408.69 z m -216681.92,-3693.71 2406.04,-1470.16 2299.34,-1410.32 v -522.98 l -2299.34,-1410.32 -2406.04,-1470.16 z m 216681.92,-3695.69 v -6283.95 l -2406.1,1471.79 -2300.9,1408.69 v 524.61 l 2300.9,1408.69 z m -216681.92,-3693.71 2406.04,-1470.17 2299.34,-1410.31 v -523.17 l -2299.34,-1410.13 -2406.04,-1470.17 z"
       style="fill:#858585;fill-rule:nonzero;stroke-width:1570.5456543" /><path
       style="stroke-width:1570.5456543"
       d="m 1024449.1,780434.62 -5946,89010.71 186.9,95.91 v 522.63 l -5223.7,192644.93 31753.3,115019 13.9,63 9.6,65.9 v 524.6 l 33.1,10.7 221.4,177.7 175.9,569.9 v 46367.3 h -68296.76 l -3535.3,-5496.7 v -24872.9 l -23734.05,-15708.5 h 5748.17 L 941097.17,1163147 h 15601.78 l -14758.38,-16282 h 15603.35 l -14759.98,-16282.1 h 15603.37 l -14760.01,-16283.1 h 15603.4 l -14760.01,-16282 h 15603.35 L 945315.66,1081736 h 15601.78 l -14758.43,-16281.9 h 15601.83 l -14758.43,-16283.6 h 15601.83 l -14758.42,-16281.6 h 15603.32 l -14759.93,-16282 h 15603.33 l -14759.97,-16281.8 h 15603.37 l -14759.98,-16283.4 h 15603.38 l -14760,-16281.79 h 15603.4 l -14758.46,-16281.96 h 15601.86 l -14758.46,-16283.6 h 15601.76 l -14758.39,-16281.6 h 15601.79 l -14758.39,-16281.97 h 15603.39 l -14760,-16281.79 h 15603.3 l -14759.92,-16283.5 h -948.61 v -20944.85 h 10472.33 v 20944.85 h 15708.7 l -13387.4,-26704.19 v -9947.73 l 4188.7,-20944.67 h 10472.4 v 523.17 l -4188.7,20421.5 v 9947.73 l 13387.4,26181.38 v 522.81 h 16047.76 l 3849.4,-89629.43 v -52362.04 h 12565.9 z m -229340.42,0 3849.41,89630.87 h 16047.84 v -524.25 l 5828.28,-26181.38 v -9947.73 l -4188.65,-20421.51 v -523.16 h 10472.41 l 4188.66,20944.67 v 9947.73 l -5828.3,26705.63 h 15708.57 v -20944.85 h 10472.41 v 20944.85 h -950.21 l -14758.38,16282.06 h 15601.78 l -14758.39,16281.61 h 15603.33 l -14759.97,16282.14 h 15603.35 l -14759.98,16283.42 h 15603.41 l -14760.01,16281.78 h 15603.4 l -14760.01,16281.97 h 15603.35 l -14758.42,16283.23 h 15601.81 l -14758.42,16282 h 15601.82 l -14758.41,16281.6 h 15601.78 l -14758.42,16282.1 h 15603.36 l -14759.97,16283.4 h 15603.37 l -14759.97,16281.8 h 15603.34 l -14759.97,16282 h 15603.37 l -14758.43,16281.6 h 15601.82 l -14758.42,16283.6 h 15601.81 l -14758.45,16281.6 h 15601.79 l -14758.42,16282.2 h 15603.4 l -14759.97,16281.6 h 15603.37 l -14759.99,16283.6 h 5748.17 l -23734.09,15708.5 v 24871.3 l -3533.7,5498.3 h -44598.81 v -25656.6 l -8561.01,-6052.9 -13654.35,6052.9 v 25656.6 h -44116.64 v -37176.4 l 576.38,-204.4 42401.61,-9743.3 -23163.97,-34173.8 -16911.62,-24949.6 -83.26,-196.3 -4413.21,-55875.3 V 846529.5 h 10472.39 v 9192.01 h 26181.02 v -9192.01 h 33213.85 l -2534.83,-37935.13 h -30679.02 v -49626.15 h 28797.48 v -30892.4 h 12567.53 z m -35824.17,71634.28 v 9192 h -36653.4 v 201707 l 4287.62,54279.6 16167.19,23851.9 27702.85,40870.6 -46563.52,10700 v 27294.6 h 33034.83 v -23720.1 l 19825,-8788.9 13472.16,9525.4 v 22983.6 h 36031.45 l 1019.27,-1583.2 v -26222 l 11268.68,-7458.2 14515,-16013.4 h -15603.42 l 14760.02,-16282 h -15603.42 l 14760.03,-16283.6 H 836101.5 l 14760.01,-16281.6 h -15603.42 l 14758.42,-16281.9 h -15601.82 l 14758.48,-16281.8 h -15601.83 l 14758.4,-16283.4 h -15601.76 l 14758.37,-16281.6 h -15603.37 l 14759.98,-16282.2 h -15603.32 l 14759.98,-16281.6 h -15603.41 l 14760.03,-16283.6 h -15603.42 l 14758.42,-16281.96 h -15601.81 l 14758.47,-16281.61 h -15601.8 l 14758.43,-16282.15 h -15601.82 l 14758.37,-16283.05 h -15601.76 l 14758.4,-16282.15 h -15603.33 l 14759.97,-16281.6 H 824291 l 14759.97,-16283.59 H 823447.6 l 14759.98,-16281.61 H 793649.62 L 792638.2,852068.9 Z m 209499.83,23537.88 14758.4,16281.61 h -15601.8 l 14758.4,16281.78 h -15601.8 l 14758.4,16281.97 h -15601.8 l 14758.5,16283.59 h -15603.4 l 14760,16281.61 h -15603.4 l 14760,16283.59 h -15603.4 l 14760,16281.61 h -15603.4 l 14758.5,16281.96 h -15601.8 l 14759.9,16281.8 h -15603.3 l 14758.4,16282 h -15601.8 l 14758.4,16283.6 h -15603.4 l 14760,16281.6 h -15603.35 l 14759.95,16281.9 h -15603.3 l 14760,16281.8 h -15603.42 l 14760.02,16283.4 h -15603.41 l 14758.41,16281.6 h -15601.8 l 14758.5,16282.2 h -15601.86 l 14758.46,16283.4 h -15603.42 l 14515.02,16011.6 11270.2,7458.6 v 26221.9 l 1017.7,1584.7 H 1040131 v -37509.7 l -430.3,-150.7 v -3739.3 l -31797.2,-115179 5091.7,-187779.12 z M 788083.61,733615.22 v 30892.4 h -28799.1 v 38544.47 h 30322.54 l 2594.54,38849.14 -2483.04,-57805.71 -105.21,64.36 v -2509.83 l -47.12,-1096.27 v -46938.56 z m 229340.49,0 v 46938.56 l -45.6,1061.84 v 6239.96 l -260.7,-160.27 -2329.1,54202.5 4119.6,-61648.7 v -46633.89 z m -289861.45,74977.71 h -10472.39 v -26177.96 h 10472.39 z m 284275.05,-30619.28 -2406.1,-1471.61 -2300.9,-1408.69 v -523.17 l 2300.9,-1410.13 2406.1,-1470.34 z m -214275.88,-8507.85 2299.34,1408.69 v 524.61 l -2299.34,1408.87 -2406.04,1470.16 v -6283.94 z m 214275.88,1118.44 -2406.1,-1470.16 -2300.9,-1410.14 v -523.16 l 2300.9,-1410.32 2406.1,-1470.16 z m -214275.88,-8507.85 2299.34,1408.69 v 524.61 l -2299.34,1408.69 -2406.04,1470.17 v -6281.96 z m 214275.88,1118.45 -2406.1,-1470.17 -2300.9,-1410.31 v -522.99 l 2300.9,-1410.31 2406.1,-1470.17 z m -214275.88,-8507.85 2299.34,1409.05 v 524.25 l -2299.34,1409.05 -2406.04,1469.8 V 753217 Z m 214275.88,1118.44 -2406.1,-1470.17 -2300.9,-1410.31 v -523.16 l 2300.9,-1410.14 2406.1,-1470.16 z m -214275.88,-8507.67 2299.34,1410.31 v 522.81 l -2299.34,1409.05 -2406.04,1469.81 v -6282.14 z m 214275.88,1118.08 -2406.1,-1470.16 -2300.9,-1408.69 v -524.61 l 2300.9,-1408.69 2406.1,-1471.61 z m -214275.88,-8507.49 2299.34,1410.32 v 522.98 l -2299.34,1410.32 -2406.04,1470.16 v -6283.94 z m 214275.88,1118.09 -2406.1,-1470.17 -2300.9,-1408.69 v -524.61 l 2300.9,-1408.69 2406.1,-1471.79 z m -214275.88,-8507.49 2299.34,1410.13 v 523.17 l -2299.34,1410.31 -2406.04,1470.17 v -6283.95 z"
       id="path30" /></g><path
     style="opacity:1;vector-effect:none;fill:none;fill-opacity:1;stroke:#ffdd00;stroke-width:4285.60058594;stroke-linecap:butt;stroke-linejoin:bevel;stroke-miterlimit:4;stroke-dasharray:none;stroke-dashoffset:0;stroke-opacity:1"
     d="m 946455.44,780604.7 -95769.09,120810.51 -4889.27,-7871.75 107882.01,56006.73 7431.73,-4082.55 -3151.48,4659.85 -107565.75,-61990.52 103320.98,97035.48"
     id="path305" /></g><g
   id="g1303-6"
   style="clip-rule:evenodd;fill-rule:evenodd;stroke-linecap:round;stroke-linejoin:round;stroke-miterlimit:1.5"
   transform="translate(-290743.27,-512793.36)"><g
     id="g303-9"><g
       transform="matrix(1570.5458,0,0,1570.5458,4777.0663,-331907.43)"
       id="g70-3"><rect
         x="495.40302"
         y="669.76703"
         width="154.98"
         height="38.002998"
         style="fill:url(#linearGradient1445)"
         id="rect48-7" /><path
         d="m 650.383,707.769 h -154.98 v -38.002 h 154.98 z M 499.57,673.933 v 29.67 h 146.646 v -29.67 z"
         id="path50-4" /><rect
         x="491.91599"
         y="583.67798"
         width="162.379"
         height="90.474998"
         style="fill:url(#linearGradient1447)"
         id="rect52-5" /><path
         d="m 654.296,674.153 h -162.38 v -90.475 h 162.38 z M 496.083,587.845 v 82.141 h 154.046 v -82.141 z"
         id="path54-2" /><rect
         x="495.40302"
         y="439.81299"
         width="154.98"
         height="147.552"
         style="fill:url(#linearGradient1449)"
         id="rect56-5" /><path
         d="M 650.383,587.365 H 495.403 V 439.813 h 154.98 z M 499.57,443.98 V 583.198 H 646.216 V 443.98 Z"
         id="path58-4" /><path
         d="m 650.383,439.797 -27.886,-28.138 h -96.788 l -30.306,28.138 z"
         style="fill:url(#linearGradient1451)"
         id="path60-7" /><path
         d="m 650.383,439.797 h -154.98 l 30.306,-28.138 h 96.788 z m -123.038,-23.971 -21.33,19.805 H 640.387 L 620.76,415.826 Z"
         id="path62-4" /><rect
         x="494.116"
         y="611.84802"
         width="157.812"
         height="9.0609999"
         style="fill:#007cdf;stroke:#000000;stroke-width:4.17000008px"
         id="rect64-4" /><rect
         x="533.70502"
         y="404.67999"
         width="78.375999"
         height="11.723"
         style="fill:url(#linearGradient1453)"
         id="rect66-3" /><path
         d="M 612.081,416.403 H 533.705 V 404.68 h 78.376 z m -74.209,-7.556 v 3.389 h 70.043 v -3.389 z"
         id="path68-0" /></g><path
       d="M 718608.95,1256542.4 H 1047588 v -30820.3 h -91733.95 v -38563.4 H 854299.39 v 38563.4 H 718608.95 Z"
       style="fill:#30b53e;stroke-width:1570.5456543"
       id="path72-7" /><g
       transform="matrix(1570.5458,0,0,1570.5458,4777.0663,-331907.43)"
       clip-path="url(#_clip6-7)"
       id="g81-8"><rect
         x="540.909"
         y="967.22101"
         width="64.662003"
         height="17.264"
         id="rect77-6" /><path
         d="m 605.571,984.485 h -64.662 v -17.264 h 64.662 z m -60.495,-13.098 v 8.931 h 56.329 v -8.931 z"
         id="path79-8" /></g><path
       style="stroke-width:1570.5456543"
       d="M 955854.05,1225720.5 H 1047588 v 30820.3 H 718608.95 v -30820.3 h 135690.44 v -38563.2 h 101554.66 z m -95010.2,-32020.1 v 32020.1 l -56.53,854.5 -166.45,838.7 -274.87,811.7 -378.52,766.6 -475.86,713 -565.42,642.3 -642.31,565.4 -713.05,474.3 -766.42,380.2 -812.01,274.7 -838.65,166.6 -854.37,56.6 H 725153.43 v 17731.6 h 315891.67 v -17731.6 h -85191.05 l -854.38,-56.6 -838.68,-166.6 -810.44,-274.7 -767.97,-380.2 -711.45,-474.3 -643.93,-565.4 -563.84,-642.3 -475.86,-713 -378.49,-766.6 -274.84,-811.7 -168.05,-838.7 -54.98,-854.5 v -32020.1 z"
       id="path83-8" /><path
       d="m 830794.59,813931.31 c 11215.3,-14433.4 38187.81,-24615.12 69645.89,-24615.12 31456.42,0 58428.98,10181.72 69644.26,24615.12 v 33058.26 H 830794.59 Z"
       style="fill:#53b3ff;stroke-width:1570.5456543"
       id="path85-4" /><path
       style="stroke-width:1570.5456543"
       d="m 901177.06,789317.63 733.42,6.31 733.46,7.75 731.84,14.06 728.77,15.87 728.72,20.37 725.58,23.79 724.02,28.13 722.46,31.37 719.31,34.43 719.31,37.86 716.15,42.18 714.62,43.99 711.49,50.48 709.86,51.74 708.29,54.8 705.23,60.03 703.59,62.56 702.03,65.8 698.89,69.23 697.31,73.73 694.18,75.54 692.63,80.04 689.45,83.29 687.89,86.53 684.78,89.24 681.63,93.02 680.01,95.37 676.93,99.33 675.33,103.66 672.17,105.11 669.03,108.52 667.53,112.86 664.31,114.83 661.24,119.17 658.05,121.14 656.46,125.48 653.33,127.27 650.24,131.79 647.06,133.76 643.95,136.65 640.79,139.54 639.2,144.4 634.5,146.21 632.92,149.27 629.8,150.71 625.06,155.4 623.51,158.82 618.8,159.91 617.22,163.33 612.5,168.02 610.96,168.2 606.22,172.89 603.12,175.77 599.91,177.39 596.81,180.64 592.1,184.06 590.52,186.59 585.81,188.39 582.69,191.81 577.96,194.7 576.38,197.77 571.72,199.57 566.93,202.45 563.82,205.88 560.68,207.32 557.57,210.2 552.84,213.63 549.66,215.61 544.98,217.96 540.24,219.94 538.75,224.8 532.41,224.27 529.3,229.67 526.08,230.58 521.46,232.56 516.69,235.44 513.54,238.87 508.89,240.13 504.18,241.75 500.94,245.18 496.3,248.06 491.6,249.86 488.46,252.93 483.73,254.38 479.01,256.17 474.26,259.06 469.64,262.12 466.43,262.13 460.18,267.35 457,266.99 452.36,269.88 447.57,273.3 442.93,273.48 436.59,277.63 433.43,278.17 428.77,281.41 424.11,282.31 419.3,284.48 414.7,287.18 408.3,289.17 405.2,292.23 398.9,292.05 394.2,295.12 391.1,296.91 383.2,299.8 380,300.35 373.8,302.86 185.4,152.52 183.7,152.15 183.8,152.52 180.6,153.6 180.6,154.13 179.1,155.4 177.4,154.14 175.9,155.4 174.3,155.58 174.4,156.84 171.2,157.02 171.1,157.02 169.7,157.39 168,158.46 168.1,158.83 164.9,158.46 164.9,160.27 161.8,158.46 161.7,160.27 160.2,161.71 158.6,160.08 157.1,161.71 157.1,161.89 153.9,163.15 153.9,161.89 152.3,163.52 150.8,164.77 149.2,163.33 147.6,165.14 146.1,164.77 144.4,164.77 143,166.58 142.9,166.58 141.4,166.21 138.2,166.58 138.2,168.2 136.6,166.58 135.1,168.01 133.5,169.65 131.9,168.01 v 33058.26 H 830794.59 v -33058.26 l 131.95,-168.01 135.06,-169.65 135.06,-168.01 135.07,-166.58 138.2,-168.2 139.79,-166.58 139.8,-166.21 142.87,-166.58 142.94,-166.58 146.07,-164.77 146.09,-164.77 147.61,-165.14 149.17,-163.33 150.8,-164.77 150.78,-163.52 153.92,-161.89 155.49,-163.15 155.42,-161.89 157.1,-161.71 158.62,-160.08 160.21,-161.71 161.75,-160.27 163.35,-158.46 163.31,-160.27 166.49,-158.46 166.47,-158.83 168.05,-158.46 169.63,-157.39 171.19,-157.02 172.76,-157.02 172.78,-156.84 174.31,-155.58 177.48,-155.4 177.47,-154.14 177.44,-155.4 180.62,-154.13 182.21,-153.6 182.19,-152.52 183.74,-152.15 185.31,-152.52 373.78,-302.86 380.08,-300.35 384.82,-299.8 389.46,-296.91 394.21,-295.12 400.47,-292.05 403.68,-292.23 409.91,-289.17 413.02,-287.18 419.35,-284.48 424.04,-282.31 428.78,-281.41 433.46,-278.17 438.18,-277.63 442.89,-273.48 447.63,-273.3 450.75,-269.88 457,-266.99 461.73,-267.35 464.9,-262.13 471.16,-262.12 474.32,-259.06 479.02,-256.17 482.15,-254.38 488.45,-252.93 491.56,-249.86 496.29,-248.06 501.01,-245.18 504.13,-241.75 508.88,-240.13 513.54,-238.87 518.3,-235.44 519.87,-232.56 526.1,-230.58 529.28,-229.67 533.98,-224.27 537.09,-224.8 541.88,-219.94 545,-217.96 548.13,-215.61 554.37,-213.63 555.96,-210.2 560.7,-207.32 563.82,-205.88 568.56,-202.45 571.62,-199.57 574.87,-197.77 579.52,-194.7 582.64,-191.81 585.85,-188.39 588.97,-186.59 593.62,-184.06 595.28,-180.64 599.91,-177.39 603.13,-175.77 607.79,-172.89 609.4,-168.2 612.51,-168.02 617.21,-163.33 620.38,-159.91 621.9,-158.82 626.65,-155.4 628.21,-150.71 632.94,-149.27 636.11,-146.21 637.6,-144.4 640.8,-139.54 645.47,-136.65 647.07,-133.76 650.21,-131.79 651.76,-127.27 656.53,-125.48 658,-121.14 662.81,-119.17 662.79,-114.83 667.44,-112.86 669.08,-108.52 672.19,-105.11 675.34,-103.66 676.9,-99.33 680.05,-95.37 683.18,-93.02 684.73,-89.24 687.94,-86.53 689.49,-83.29 691,-80.04 695.73,-75.54 695.82,-73.73 698.85,-69.23 702.07,-65.8 703.59,-62.56 705.14,-60.03 708.34,-54.8 709.9,-51.74 712.98,-50.48 714.62,-43.99 716.18,-42.18 717.74,-37.86 720.87,-34.43 720.88,-31.37 724.01,-28.13 727.19,-23.79 727.17,-20.37 730.27,-15.87 730.32,-14.06 733.44,-7.75 735.03,-6.31 h 736.6 z m -1440.21,6544.62 -702.03,4.33 -700.49,9.73 -697.32,10.64 -697.29,17.49 -694.18,18.75 -692.63,21.99 -691.06,27.04 -689.47,29.57 -686.3,32.99 -684.77,36.23 -683.19,40.75 -681.6,42.54 -678.47,47.05 -676.89,48.5 -675.34,53.72 -672.2,56.25 -670.6,59.85 -667.5,62.74 -665.94,65.8 -662.78,70.67 -661.2,72.29 -658.03,75.54 -656.52,78.42 -653.35,83.29 -651.74,84.91 -648.63,87.97 -647.06,91.22 -642.36,93.93 -640.8,97.35 -639.21,100.77 -634.49,103.66 -632.95,106.55 -629.77,109.97 -626.64,111.41 -625.12,116.28 -621.9,117.72 -618.81,121.14 -615.66,124.04 -610.93,127.27 -609.35,128.9 -606.24,133.23 -603.09,135.2 -601.55,138.1 -596.79,139.89 -593.67,144.4 -590.52,146.21 -587.4,149.27 -582.66,150.71 -581.1,153.96 -577.97,157.02 -573.25,159.91 -570.08,161.89 -567.01,165.13 -562.23,166.22 -560.68,169.82 -555.96,172.53 -552.87,174.5 -548.09,177.22 -544.97,179.19 -541.85,182.26 -537.14,183.53 -533.98,186.95 -529.29,188.57 -526.13,191.63 -521.4,193.26 -518.29,196.32 -513.54,197.77 -510.46,201.01 -505.72,201.01 -500.99,205.87 -497.85,205.7 -493.17,208.94 -488.41,210.21 -486.86,213.62 -480.64,215.08 -474.31,217.05 -472.7,218.14 -468.06,221.74 -461.71,222.82 -458.61,224.81 -455.45,225.71 -449.16,228.05 -444.48,230.75 -441.34,230.94 -435.02,234 -430.36,235.44 -425.58,237.43 -420.94,236.88 -417.75,240.31 -411.47,242.12 -406.78,243.19 -402.07,245.18 -397.33,246.62 -392.65,246.44 -386.32,249.5 -381.66,250.05 -378.49,252.75 -372.24,252.93 -365.95,252.93 -361.22,255.81 -356.5,256.18 -351.79,257.25 -347.09,260.68 -339.27,259.24 -334.52,260.87 -331.39,262.12 -329.8,266.99 -155.47,127.46 -160.19,131.78 -157.1,131.78 -155.45,132.15 -153.89,131.78 -153.92,133.59 -153.94,131.96 -149.2,133.58 -149.21,133.23 -149.2,132.14 -146.06,134.85 -146.04,133.59 -144.51,133.4 -141.36,135.03 -141.36,133.77 -139.75,133.22 -139.8,135.21 -136.62,135.03 -135.06,135.21 -135.07,133.22 -133.49,135.21 -131.91,136.47 -128.81,133.77 -128.81,135.03 -127.22,136.65 -125.6,133.22 -125.67,136.65 -114.66,127.46 v 24137.57 H 963540.24 V 816309 l -114.6,-127.46 -124.1,-136.65 -125.7,-133.22 -128.7,-136.65 -127.3,-133.59 -130.3,-135.21 -131.9,-136.47 -133.5,-135.21 -133.5,-133.22 -135.1,-135.21 -138.2,-135.03 -138.2,-135.21 -139.7,-133.22 -141.4,-133.77 -142.9,-135.03 -142.9,-133.4 -146.1,-133.59 -147.7,-133.22 -147.6,-133.77 -149.2,-133.23 -150.8,-133.58 -152.3,-131.96 -153.9,-133.59 -155.5,-131.78 -155.5,-133.59 -157,-130.34 -158.6,-131.78 -155.5,-127.46 -331.43,-268.43 -329.82,-260.68 -336.12,-260.87 -339.22,-259.24 -347.08,-260.68 -351.8,-257.25 -354.97,-256.18 -362.75,-255.81 -365.95,-252.93 -372.23,-252.93 -376.96,-252.75 -381.6,-250.05 -387.92,-249.5 -392.65,-246.44 -395.76,-246.62 -402.07,-245.18 -406.78,-243.19 -413.05,-242.12 -416.19,-240.31 -420.92,-236.88 -427.18,-237.43 -430.34,-235.44 -435.01,-234 -439.74,-230.94 -446.06,-230.75 -449.16,-228.05 -453.94,-225.71 -458.57,-224.81 -463.32,-222.82 -468,-221.74 -471.19,-218.14 -475.9,-217.05 -480.55,-215.08 -485.3,-213.62 -488.45,-210.21 -493.15,-208.94 -497.87,-205.7 -502.58,-205.87 -505.7,-202.46 -510.43,-199.56 -513.54,-197.77 -518.34,-196.32 -521.36,-193.26 -526.16,-191.63 -529.24,-188.57 -534.02,-186.95 -537.12,-183.53 -540.26,-182.26 -546.58,-179.19 -548.08,-177.22 -551.27,-174.5 -557.55,-172.53 -559.11,-169.82 -563.84,-166.22 -566.97,-165.13 -570.11,-161.89 -573.27,-159.91 -577.93,-157.02 -579.54,-153.96 -584.25,-150.71 -587.36,-149.27 -590.52,-146.21 -593.67,-144.4 -596.81,-139.89 -599.93,-138.1 -603.14,-135.2 -606.18,-133.23 -609.41,-128.9 -612.49,-127.27 -615.67,-124.04 -618.79,-121.14 -620.37,-117.72 -625.06,-116.28 -626.66,-111.41 -629.82,-109.97 -632.88,-106.55 -636.08,-103.66 -637.64,-100.77 -640.8,-97.35 -643.89,-93.93 -645.51,-91.22 -648.64,-87.97 -651.81,-84.91 -653.34,-83.29 -656.49,-78.42 -658.05,-75.54 -661.18,-72.29 -664.36,-70.67 -665.89,-65.8 -667.5,-62.74 -670.63,-59.85 -672.15,-56.25 -673.79,-53.72 -676.89,-48.5 -680.1,-47.05 -679.99,-42.54 -683.21,-40.75 -684.75,-36.23 -687.89,-32.99 -689.49,-29.57 -689.47,-27.04 -692.61,-21.99 -695.78,-18.75 -695.73,-17.49 -698.85,-10.64 -700.52,-9.73 -700.43,-4.33 h -703.59 z"
       id="path87-3" /><path
       id="optics-1"
       d="m 1045673.5,1225506.9 v -46367.3 l -175.9,-569.9 -221.4,-177.7 -33.1,-10.7 v -524.6 l -9.6,-65.9 -13.9,-63 -31753.3,-115019 5223.7,-192644.93 v -522.63 l -186.9,-95.91 5946,-89010.71 V 728072.4 h -12565.9 v 52362.22 l -3849.4,89629.25 h -16047.76 v -522.63 l -13387.4,-26181.38 v -9947.73 l 4188.7,-20421.51 v -523.16 h -10472.4 l -4188.7,20944.67 v 9947.73 l 13387.4,26704.01 h -15708.7 v -20944.68 h -10472.33 v 20944.68 h 948.61 l -425.66,309363.23 h -5748.17 l 23734.05,15708.7 v 24872.8 l 3535.3,5496.8 z m -216058.36,0 3533.7,-5498.3 v -24871.3 l 23734.09,-15708.5 h -5748.17 l -425.66,-309363.31 h 950.21 V 849120.64 H 841186.9 v 20944.85 h -15708.57 l 5828.3,-26705.63 v -9947.73 l -4188.66,-20944.67 h -10472.41 v 523.16 l 4188.65,20421.51 v 9947.73 l -5828.28,26181.38 v 524.25 h -16047.84 l -3849.41,-89630.87 v -52360.24 h -12567.53 v 30892.4 h -28797.48 v 49626.15 h 30679.02 l 2534.83,37935.13 h -33213.85 v 9192.01 h -26181.02 v -9192.01 h -10472.39 v 216658.34 l 4413.21,55875.3 83.26,196.3 16911.62,24949.5 23163.97,34173.8 -42401.61,9743.3 -576.38,204.5 v 37176.3 h 44116.64 v -25656.6 l 13654.35,-6053 8561.01,6053 v 25656.6 z M 727562.65,808592.93 v -26177.96 h -10472.39 v 26177.96 z m 284275.05,-30619.28 v -6283.94 l -2406.1,1470.34 -2300.9,1410.13 v 523.17 l 2300.9,1408.69 z m -216681.92,-3695.52 2406.04,-1470.16 2299.34,-1408.87 v -524.61 l -2299.34,-1408.69 -2406.04,-1471.61 z m 216681.92,-3693.89 v -6283.94 l -2406.1,1470.16 -2300.9,1410.32 v 523.16 l 2300.9,1410.14 z m -216681.92,-3695.69 2406.04,-1470.17 2299.34,-1408.69 v -524.61 l -2299.34,-1408.69 -2406.04,-1469.8 z m 216681.92,-3693.71 v -6283.95 l -2406.1,1470.17 -2300.9,1410.31 v 522.99 l 2300.9,1410.31 z m -216681.92,-3695.7 2406.04,-1469.8 2299.34,-1409.05 v -524.25 l -2299.34,-1409.05 -2406.04,-1469.99 z m 216681.92,-3693.71 v -6283.94 l -2406.1,1470.16 -2300.9,1410.14 v 523.16 l 2300.9,1410.31 z m -216681.92,-3695.69 2406.04,-1469.81 2299.34,-1409.05 v -522.81 l -2299.34,-1410.31 -2406.04,-1470.16 z m 216681.92,-3693.9 v -6283.76 l -2406.1,1471.61 -2300.9,1408.69 v 524.61 l 2300.9,1408.69 z m -216681.92,-3693.71 2406.04,-1470.16 2299.34,-1410.32 v -522.98 l -2299.34,-1410.32 -2406.04,-1470.16 z m 216681.92,-3695.69 v -6283.95 l -2406.1,1471.79 -2300.9,1408.69 v 524.61 l 2300.9,1408.69 z m -216681.92,-3693.71 2406.04,-1470.17 2299.34,-1410.31 v -523.17 l -2299.34,-1410.13 -2406.04,-1470.17 z"
       style="fill:#858585;fill-rule:nonzero;stroke-width:1570.5456543" /><path
       style="stroke-width:1570.5456543"
       d="m 1024449.1,780434.62 -5946,89010.71 186.9,95.91 v 522.63 l -5223.7,192644.93 31753.3,115019 13.9,63 9.6,65.9 v 524.6 l 33.1,10.7 221.4,177.7 175.9,569.9 v 46367.3 h -68296.76 l -3535.3,-5496.7 v -24872.9 l -23734.05,-15708.5 6173.83,-309363.31 h -948.61 v -20944.85 h 10472.33 v 20944.85 l 13219.48,138.29 -13387.4,-26704.19 v -9947.73 l 6677.92,-21082.96 h 10472.4 v 523.17 l -4188.7,20421.5 v 9947.73 l 13387.4,26181.38 v 522.81 h 16047.76 l 3849.4,-89629.43 v -52362.04 h 12565.9 z m -229340.42,0 3849.41,89630.87 h 16047.84 v -524.25 l 5828.28,-26181.38 v -9947.73 l -4188.65,-20421.51 v -523.16 h 10472.41 l 4188.66,20944.67 v 9947.73 l -5828.3,26705.63 h 15708.57 v -20944.85 h 10472.41 v 20944.85 h -950.21 l 6173.83,309363.31 -23734.09,15708.5 v 24871.3 l -3533.7,5498.3 h -44598.81 v -25656.6 l -8561.01,-6052.9 -13654.35,6052.9 v 25656.6 h -44116.64 v -37176.4 l 576.38,-204.4 42401.61,-9743.3 -23163.97,-34173.8 -16911.62,-24949.6 -83.26,-196.3 -4413.21,-55875.3 V 846529.5 h 10472.39 v 9192.01 h 26181.02 v -9192.01 h 33213.85 l -2534.83,-37935.13 h -30679.02 v -49626.15 h 28797.48 v -30892.4 h 12567.53 z m -35824.17,71634.28 v 9192 h -36653.4 v 201707 l 4287.62,54279.6 16167.19,23851.9 27702.85,40870.6 -46563.52,10700 v 27294.6 h 33034.83 v -23720.1 l 19825,-8788.9 13472.16,9525.4 v 22983.6 h 36031.45 l 1019.27,-1583.2 v -26222 l 22956.68,-15250.2 -6663.29,-301579 -50251.73,276.58 -1011.42,-23537.88 z m 203114.61,23676.17 -5973.38,301162.33 22958.2,15250.6 v 26221.9 l 1017.7,1584.7 H 1040131 v -37509.7 l -430.3,-150.7 v -3739.3 l -31797.2,-115179 5091.7,-187779.12 z M 788083.61,733615.22 v 30892.4 h -28799.1 v 38544.47 h 30322.54 l 2594.54,38849.14 -2483.04,-57805.71 -105.21,64.36 v -2509.83 l -47.12,-1096.27 v -46938.56 z m 229340.49,0 v 46938.56 l -45.6,1061.84 v 6239.96 l -260.7,-160.27 -2329.1,54202.5 4119.6,-61648.7 v -46633.89 z m -289861.45,74977.71 h -10472.39 v -26177.96 h 10472.39 z m 284275.05,-30619.28 -2406.1,-1471.61 -2300.9,-1408.69 v -523.17 l 2300.9,-1410.13 2406.1,-1470.34 z m -214275.88,-8507.85 2299.34,1408.69 v 524.61 l -2299.34,1408.87 -2406.04,1470.16 v -6283.94 z m 214275.88,1118.44 -2406.1,-1470.16 -2300.9,-1410.14 v -523.16 l 2300.9,-1410.32 2406.1,-1470.16 z m -214275.88,-8507.85 2299.34,1408.69 v 524.61 l -2299.34,1408.69 -2406.04,1470.17 v -6281.96 z m 214275.88,1118.45 -2406.1,-1470.17 -2300.9,-1410.31 v -522.99 l 2300.9,-1410.31 2406.1,-1470.17 z m -214275.88,-8507.85 2299.34,1409.05 v 524.25 l -2299.34,1409.05 -2406.04,1469.8 V 753217 Z m 214275.88,1118.44 -2406.1,-1470.17 -2300.9,-1410.31 v -523.16 l 2300.9,-1410.14 2406.1,-1470.16 z m -214275.88,-8507.67 2299.34,1410.31 v 522.81 l -2299.34,1409.05 -2406.04,1469.81 v -6282.14 z m 214275.88,1118.08 -2406.1,-1470.16 -2300.9,-1408.69 v -524.61 l 2300.9,-1408.69 2406.1,-1471.61 z m -214275.88,-8507.49 2299.34,1410.32 v 522.98 l -2299.34,1410.32 -2406.04,1470.16 v -6283.94 z m 214275.88,1118.09 -2406.1,-1470.17 -2300.9,-1408.69 v -524.61 l 2300.9,-1408.69 2406.1,-1471.79 z m -214275.88,-8507.49 2299.34,1410.13 v 523.17 l -2299.34,1410.31 -2406.04,1470.17 v -6283.95 z"
       id="path30-4" /></g><path
     style="opacity:1;vector-effect:none;fill:none;fill-opacity:1;stroke:#ffdd00;stroke-width:4285.60058594;stroke-linecap:butt;stroke-linejoin:miter;stroke-miterlimit:4;stroke-dasharray:none;stroke-dashoffset:0;stroke-opacity:1"
     d="m 946455.44,780604.7 -94356.95,123741.2 98261.02,196063.8 -54600.59,87530.5"
     id="path305-9" /></g></svg>